{"user_id":48341,"event_count":4,"session_starttimestamp":1495749695,"session_endtimestamp":1495751495,"session":[{"event_name":"event_09","timestamp":1495749695},{"event_name":"event_06","timestamp":1495749735},{"event_name":"event_02","timestamp":1495749761},{"event_name":"event_04","timestamp":1495749768}]}
{"user_id":49163,"event_count":5,"session_starttimestamp":1495750021,"session_endtimestamp":1495751821,"session":[{"event_name":"event_02","timestamp":1495750021},{"event_name":"event_08","timestamp":1495750038},{"event_name":"event_09","timestamp":1495750068},{"event_name":"event_05","timestamp":1495750104},{"event_name":"event_04","timestamp":1495750114}]}
{"user_id":48396,"event_count":1,"session_starttimestamp":1495751925,"session_endtimestamp":1495753725,"session":[{"event_name":"event_09","timestamp":1495751925}]}
{"user_id":49606,"event_count":4,"session_starttimestamp":1495751941,"session_endtimestamp":1495753741,"session":[{"event_name":"event_04","timestamp":1495751941},{"event_name":"event_07","timestamp":1495751972},{"event_name":"event_05","timestamp":1495752011},{"event_name":"event_07","timestamp":1495753318}]}
{"user_id":48023,"event_count":1,"session_starttimestamp":1495752099,"session_endtimestamp":1495753899,"session":[{"event_name":"event_04","timestamp":1495752099}]}
{"user_id":49617,"event_count":1,"session_starttimestamp":1495752374,"session_endtimestamp":1495754174,"session":[{"event_name":"event_06","timestamp":1495752374}]}
{"user_id":49618,"event_count":5,"session_starttimestamp":1495752425,"session_endtimestamp":1495754225,"session":[{"event_name":"event_03","timestamp":1495752425},{"event_name":"event_04","timestamp":1495752434},{"event_name":"event_06","timestamp":1495752477},{"event_name":"event_08","timestamp":1495752494},{"event_name":"event_06","timestamp":1495752511}]}
{"user_id":48409,"event_count":8,"session_starttimestamp":1495752476,"session_endtimestamp":1495754276,"session":[{"event_name":"event_05","timestamp":1495752476},{"event_name":"event_07","timestamp":1495752491},{"event_name":"event_00","timestamp":1495752503},{"event_name":"event_01","timestamp":1495752523},{"event_name":"event_07","timestamp":1495752536},{"event_name":"event_08","timestamp":1495752568},{"event_name":"event_07","timestamp":1495752592},{"event_name":"event_06","timestamp":1495752619}]}
{"user_id":49388,"event_count":1,"session_starttimestamp":1495752851,"session_endtimestamp":1495754651,"session":[{"event_name":"event_07","timestamp":1495752851}]}
{"user_id":49528,"event_count":1,"session_starttimestamp":1495753335,"session_endtimestamp":1495755135,"session":[{"event_name":"event_01","timestamp":1495753335}]}
{"user_id":48434,"event_count":2,"session_starttimestamp":1495753512,"session_endtimestamp":1495755312,"session":[{"event_name":"event_06","timestamp":1495753512},{"event_name":"event_02","timestamp":1495753527}]}
{"user_id":49485,"event_count":12,"session_starttimestamp":1495754041,"session_endtimestamp":1495755841,"session":[{"event_name":"event_00","timestamp":1495754041},{"event_name":"event_09","timestamp":1495754056},{"event_name":"event_05","timestamp":1495754085},{"event_name":"event_03","timestamp":1495754120},{"event_name":"event_02","timestamp":1495754130},{"event_name":"event_09","timestamp":1495754174},{"event_name":"event_04","timestamp":1495754213},{"event_name":"event_09","timestamp":1495754234},{"event_name":"event_02","timestamp":1495754271},{"event_name":"event_03","timestamp":1495754311},{"event_name":"event_08","timestamp":1495754327},{"event_name":"event_04","timestamp":1495754347}]}
{"user_id":49495,"event_count":1,"session_starttimestamp":1495754205,"session_endtimestamp":1495756005,"session":[{"event_name":"event_03","timestamp":1495754205}]}
{"user_id":49723,"event_count":12,"session_starttimestamp":1495756605,"session_endtimestamp":1495758405,"session":[{"event_name":"event_06","timestamp":1495756605},{"event_name":"event_07","timestamp":1495756648},{"event_name":"event_00","timestamp":1495756693},{"event_name":"event_03","timestamp":1495757832},{"event_name":"event_00","timestamp":1495757839},{"event_name":"event_02","timestamp":1495757866},{"event_name":"event_09","timestamp":1495757892},{"event_name":"event_06","timestamp":1495757913},{"event_name":"event_03","timestamp":1495757920},{"event_name":"event_01","timestamp":1495757949},{"event_name":"event_02","timestamp":1495757982},{"event_name":"event_01","timestamp":1495757992}]}
{"user_id":49497,"event_count":2,"session_starttimestamp":1495756687,"session_endtimestamp":1495758487,"session":[{"event_name":"event_02","timestamp":1495756687},{"event_name":"event_02","timestamp":1495756719}]}
{"user_id":49524,"event_count":5,"session_starttimestamp":1495756946,"session_endtimestamp":1495758746,"session":[{"event_name":"event_08","timestamp":1495756946},{"event_name":"event_03","timestamp":1495756974},{"event_name":"event_08","timestamp":1495756991},{"event_name":"event_03","timestamp":1495756996},{"event_name":"event_03","timestamp":1495757015}]}
{"user_id":48518,"event_count":2,"session_starttimestamp":1495756950,"session_endtimestamp":1495758750,"session":[{"event_name":"event_04","timestamp":1495756950},{"event_name":"event_09","timestamp":1495756985}]}
{"user_id":49422,"event_count":1,"session_starttimestamp":1495756980,"session_endtimestamp":1495758780,"session":[{"event_name":"event_08","timestamp":1495756980}]}
{"user_id":49513,"event_count":5,"session_starttimestamp":1495757251,"session_endtimestamp":1495759051,"session":[{"event_name":"event_07","timestamp":1495757251},{"event_name":"event_02","timestamp":1495757274},{"event_name":"event_07","timestamp":1495757313},{"event_name":"event_04","timestamp":1495757331},{"event_name":"event_06","timestamp":1495757356}]}
{"user_id":49388,"event_count":3,"session_starttimestamp":1495757308,"session_endtimestamp":1495759108,"session":[{"event_name":"event_00","timestamp":1495757308},{"event_name":"event_00","timestamp":1495757346},{"event_name":"event_02","timestamp":1495757378}]}
{"user_id":48023,"event_count":1,"session_starttimestamp":1495757957,"session_endtimestamp":1495759757,"session":[{"event_name":"event_06","timestamp":1495757957}]}
{"user_id":49537,"event_count":3,"session_starttimestamp":1495758221,"session_endtimestamp":1495760021,"session":[{"event_name":"event_09","timestamp":1495758221},{"event_name":"event_00","timestamp":1495758235},{"event_name":"event_07","timestamp":1495758243}]}
{"user_id":49385,"event_count":1,"session_starttimestamp":1495758861,"session_endtimestamp":1495760661,"session":[{"event_name":"event_09","timestamp":1495758861}]}
{"user_id":49617,"event_count":1,"session_starttimestamp":1495758904,"session_endtimestamp":1495760704,"session":[{"event_name":"event_06","timestamp":1495758904}]}
{"user_id":48579,"event_count":4,"session_starttimestamp":1495759434,"session_endtimestamp":1495761234,"session":[{"event_name":"event_02","timestamp":1495759434},{"event_name":"event_01","timestamp":1495759467},{"event_name":"event_00","timestamp":1495759475},{"event_name":"event_08","timestamp":1495759513}]}
{"user_id":49618,"event_count":1,"session_starttimestamp":1495759723,"session_endtimestamp":1495761523,"session":[{"event_name":"event_09","timestamp":1495759723}]}
{"user_id":49808,"event_count":7,"session_starttimestamp":1495760002,"session_endtimestamp":1495761802,"session":[{"event_name":"event_07","timestamp":1495760002},{"event_name":"event_06","timestamp":1495760043},{"event_name":"event_08","timestamp":1495760052},{"event_name":"event_07","timestamp":1495760091},{"event_name":"event_05","timestamp":1495760114},{"event_name":"event_08","timestamp":1495760150},{"event_name":"event_08","timestamp":1495760169}]}
{"user_id":48023,"event_count":4,"session_starttimestamp":1495760130,"session_endtimestamp":1495761930,"session":[{"event_name":"event_02","timestamp":1495760130},{"event_name":"event_06","timestamp":1495760173},{"event_name":"event_01","timestamp":1495760217},{"event_name":"event_07","timestamp":1495760250}]}
{"user_id":48599,"event_count":5,"session_starttimestamp":1495760246,"session_endtimestamp":1495762046,"session":[{"event_name":"event_07","timestamp":1495760246},{"event_name":"event_03","timestamp":1495760269},{"event_name":"event_02","timestamp":1495760279},{"event_name":"event_09","timestamp":1495760321},{"event_name":"event_00","timestamp":1495760329}]}
{"user_id":48604,"event_count":2,"session_starttimestamp":1495760445,"session_endtimestamp":1495762245,"session":[{"event_name":"event_05","timestamp":1495760445},{"event_name":"event_08","timestamp":1495760453}]}
{"user_id":49528,"event_count":6,"session_starttimestamp":1495760565,"session_endtimestamp":1495762365,"session":[{"event_name":"event_04","timestamp":1495760565},{"event_name":"event_05","timestamp":1495760609},{"event_name":"event_08","timestamp":1495760618},{"event_name":"event_04","timestamp":1495760650},{"event_name":"event_03","timestamp":1495760677},{"event_name":"event_00","timestamp":1495760715}]}
{"user_id":49832,"event_count":10,"session_starttimestamp":1495760970,"session_endtimestamp":1495762770,"session":[{"event_name":"event_09","timestamp":1495760970},{"event_name":"event_05","timestamp":1495761013},{"event_name":"event_04","timestamp":1495761038},{"event_name":"event_01","timestamp":1495761063},{"event_name":"event_02","timestamp":1495761079},{"event_name":"event_04","timestamp":1495761084},{"event_name":"event_04","timestamp":1495761118},{"event_name":"event_02","timestamp":1495761141},{"event_name":"event_00","timestamp":1495761180},{"event_name":"event_06","timestamp":1495761188}]}
{"user_id":49835,"event_count":3,"session_starttimestamp":1495761102,"session_endtimestamp":1495762902,"session":[{"event_name":"event_09","timestamp":1495761102},{"event_name":"event_03","timestamp":1495761128},{"event_name":"event_09","timestamp":1495761170}]}
{"user_id":49385,"event_count":4,"session_starttimestamp":1495761288,"session_endtimestamp":1495763088,"session":[{"event_name":"event_04","timestamp":1495761288},{"event_name":"event_02","timestamp":1495761293},{"event_name":"event_05","timestamp":1495761335},{"event_name":"event_01","timestamp":1495761376}]}
{"user_id":48396,"event_count":6,"session_starttimestamp":1495762526,"session_endtimestamp":1495764326,"session":[{"event_name":"event_07","timestamp":1495762526},{"event_name":"event_04","timestamp":1495762557},{"event_name":"event_04","timestamp":1495762594},{"event_name":"event_01","timestamp":1495762634},{"event_name":"event_04","timestamp":1495762679},{"event_name":"event_08","timestamp":1495762705}]}
{"user_id":48658,"event_count":2,"session_starttimestamp":1495762664,"session_endtimestamp":1495764464,"session":[{"event_name":"event_04","timestamp":1495762664},{"event_name":"event_01","timestamp":1495762692}]}
{"user_id":49880,"event_count":3,"session_starttimestamp":1495762901,"session_endtimestamp":1495764701,"session":[{"event_name":"event_09","timestamp":1495762901},{"event_name":"event_01","timestamp":1495762927},{"event_name":"event_03","timestamp":1495762935}]}
{"user_id":49723,"event_count":1,"session_starttimestamp":1495763344,"session_endtimestamp":1495765144,"session":[{"event_name":"event_02","timestamp":1495763344}]}
{"user_id":49617,"event_count":2,"session_starttimestamp":1495763421,"session_endtimestamp":1495765221,"session":[{"event_name":"event_00","timestamp":1495763421},{"event_name":"event_02","timestamp":1495763463}]}
{"user_id":49897,"event_count":3,"session_starttimestamp":1495763580,"session_endtimestamp":1495765380,"session":[{"event_name":"event_08","timestamp":1495763580},{"event_name":"event_01","timestamp":1495763611},{"event_name":"event_08","timestamp":1495763624}]}
{"user_id":49388,"event_count":6,"session_starttimestamp":1495763651,"session_endtimestamp":1495765451,"session":[{"event_name":"event_09","timestamp":1495763651},{"event_name":"event_00","timestamp":1495763667},{"event_name":"event_07","timestamp":1495763678},{"event_name":"event_07","timestamp":1495763714},{"event_name":"event_03","timestamp":1495763725},{"event_name":"event_05","timestamp":1495763766}]}
{"user_id":48711,"event_count":4,"session_starttimestamp":1495764860,"session_endtimestamp":1495766660,"session":[{"event_name":"event_07","timestamp":1495764860},{"event_name":"event_06","timestamp":1495764890},{"event_name":"event_03","timestamp":1495764933},{"event_name":"event_06","timestamp":1495764939}]}
{"user_id":49880,"event_count":9,"session_starttimestamp":1495765559,"session_endtimestamp":1495767359,"session":[{"event_name":"event_08","timestamp":1495765559},{"event_name":"event_01","timestamp":1495765589},{"event_name":"event_04","timestamp":1495765606},{"event_name":"event_07","timestamp":1495765625},{"event_name":"event_07","timestamp":1495765654},{"event_name":"event_08","timestamp":1495765682},{"event_name":"event_01","timestamp":1495765702},{"event_name":"event_03","timestamp":1495765724},{"event_name":"event_00","timestamp":1495765735}]}
{"user_id":49723,"event_count":1,"session_starttimestamp":1495765573,"session_endtimestamp":1495767373,"session":[{"event_name":"event_00","timestamp":1495765573}]}
{"user_id":49953,"event_count":3,"session_starttimestamp":1495765838,"session_endtimestamp":1495767638,"session":[{"event_name":"event_01","timestamp":1495765838},{"event_name":"event_08","timestamp":1495765862},{"event_name":"event_01","timestamp":1495765887}]}
{"user_id":49835,"event_count":1,"session_starttimestamp":1495766091,"session_endtimestamp":1495767891,"session":[{"event_name":"event_06","timestamp":1495766091}]}
{"user_id":49965,"event_count":1,"session_starttimestamp":1495766281,"session_endtimestamp":1495768081,"session":[{"event_name":"event_09","timestamp":1495766281}]}
{"user_id":49832,"event_count":2,"session_starttimestamp":1495767671,"session_endtimestamp":1495769471,"session":[{"event_name":"event_04","timestamp":1495767671},{"event_name":"event_02","timestamp":1495767680}]}
{"user_id":49385,"event_count":1,"session_starttimestamp":1495767755,"session_endtimestamp":1495769555,"session":[{"event_name":"event_05","timestamp":1495767755}]}
{"user_id":48604,"event_count":4,"session_starttimestamp":1495769666,"session_endtimestamp":1495771466,"session":[{"event_name":"event_08","timestamp":1495769666},{"event_name":"event_00","timestamp":1495769685},{"event_name":"event_08","timestamp":1495769703},{"event_name":"event_00","timestamp":1495769726}]}
{"user_id":48837,"event_count":17,"session_starttimestamp":1495770016,"session_endtimestamp":1495771816,"session":[{"event_name":"event_06","timestamp":1495770016},{"event_name":"event_09","timestamp":1495770023},{"event_name":"event_05","timestamp":1495770039},{"event_name":"event_02","timestamp":1495770060},{"event_name":"event_06","timestamp":1495770094},{"event_name":"event_05","timestamp":1495770106},{"event_name":"event_02","timestamp":1495770123},{"event_name":"event_09","timestamp":1495770150},{"event_name":"event_06","timestamp":1495770177},{"event_name":"event_01","timestamp":1495770189},{"event_name":"event_04","timestamp":1495770234},{"event_name":"event_04","timestamp":1495770276},{"event_name":"event_01","timestamp":1495770282},{"event_name":"event_08","timestamp":1495770305},{"event_name":"event_08","timestamp":1495770324},{"event_name":"event_07","timestamp":1495770339},{"event_name":"event_07","timestamp":1495770360}]}
{"user_id":48658,"event_count":5,"session_starttimestamp":1495770046,"session_endtimestamp":1495771846,"session":[{"event_name":"event_03","timestamp":1495770046},{"event_name":"event_02","timestamp":1495770063},{"event_name":"event_04","timestamp":1495770086},{"event_name":"event_09","timestamp":1495770117},{"event_name":"event_03","timestamp":1495770152}]}
{"user_id":49965,"event_count":1,"session_starttimestamp":1495770694,"session_endtimestamp":1495772494,"session":[{"event_name":"event_06","timestamp":1495770694}]}
{"user_id":48886,"event_count":3,"session_starttimestamp":1495772022,"session_endtimestamp":1495773822,"session":[{"event_name":"event_04","timestamp":1495772022},{"event_name":"event_07","timestamp":1495772034},{"event_name":"event_04","timestamp":1495772074}]}
{"user_id":48711,"event_count":1,"session_starttimestamp":1495772027,"session_endtimestamp":1495773827,"session":[{"event_name":"event_07","timestamp":1495772027}]}
{"user_id":49617,"event_count":2,"session_starttimestamp":1495772322,"session_endtimestamp":1495774122,"session":[{"event_name":"event_03","timestamp":1495772322},{"event_name":"event_09","timestamp":1495772342}]}
{"user_id":48396,"event_count":5,"session_starttimestamp":1495772407,"session_endtimestamp":1495774207,"session":[{"event_name":"event_02","timestamp":1495772407},{"event_name":"event_00","timestamp":1495772451},{"event_name":"event_08","timestamp":1495772475},{"event_name":"event_08","timestamp":1495772493},{"event_name":"event_08","timestamp":1495772510}]}
{"user_id":48902,"event_count":4,"session_starttimestamp":1495772692,"session_endtimestamp":1495774492,"session":[{"event_name":"event_00","timestamp":1495772692},{"event_name":"event_01","timestamp":1495772711},{"event_name":"event_05","timestamp":1495772746},{"event_name":"event_09","timestamp":1495772755}]}
{"user_id":48909,"event_count":11,"session_starttimestamp":1495772960,"session_endtimestamp":1495774760,"session":[{"event_name":"event_09","timestamp":1495772960},{"event_name":"event_09","timestamp":1495772974},{"event_name":"event_07","timestamp":1495773008},{"event_name":"event_03","timestamp":1495773018},{"event_name":"event_07","timestamp":1495773023},{"event_name":"event_00","timestamp":1495773040},{"event_name":"event_08","timestamp":1495773045},{"event_name":"event_02","timestamp":1495773089},{"event_name":"event_01","timestamp":1495773121},{"event_name":"event_01","timestamp":1495773156},{"event_name":"event_00","timestamp":1495773198}]}
{"user_id":48915,"event_count":1,"session_starttimestamp":1495773199,"session_endtimestamp":1495774999,"session":[{"event_name":"event_03","timestamp":1495773199}]}
{"user_id":48919,"event_count":4,"session_starttimestamp":1495773373,"session_endtimestamp":1495775173,"session":[{"event_name":"event_05","timestamp":1495773373},{"event_name":"event_00","timestamp":1495773409},{"event_name":"event_05","timestamp":1495773448},{"event_name":"event_04","timestamp":1495773479}]}
{"user_id":48922,"event_count":6,"session_starttimestamp":1495773508,"session_endtimestamp":1495775308,"session":[{"event_name":"event_07","timestamp":1495773508},{"event_name":"event_03","timestamp":1495773513},{"event_name":"event_01","timestamp":1495773523},{"event_name":"event_06","timestamp":1495773557},{"event_name":"event_01","timestamp":1495773582},{"event_name":"event_09","timestamp":1495773598}]}
{"user_id":49385,"event_count":1,"session_starttimestamp":1495774704,"session_endtimestamp":1495776504,"session":[{"event_name":"event_08","timestamp":1495774704}]}
{"user_id":48980,"event_count":1,"session_starttimestamp":1495775889,"session_endtimestamp":1495777689,"session":[{"event_name":"event_01","timestamp":1495775889}]}
{"user_id":48886,"event_count":1,"session_starttimestamp":1495776503,"session_endtimestamp":1495778303,"session":[{"event_name":"event_00","timestamp":1495776503}]}
{"user_id":49835,"event_count":4,"session_starttimestamp":1495776779,"session_endtimestamp":1495778579,"session":[{"event_name":"event_03","timestamp":1495776779},{"event_name":"event_01","timestamp":1495776816},{"event_name":"event_06","timestamp":1495776851},{"event_name":"event_02","timestamp":1495776879}]}
{"user_id":48837,"event_count":2,"session_starttimestamp":1495776913,"session_endtimestamp":1495778713,"session":[{"event_name":"event_00","timestamp":1495776913},{"event_name":"event_07","timestamp":1495776936}]}
{"user_id":48604,"event_count":8,"session_starttimestamp":1495777036,"session_endtimestamp":1495778836,"session":[{"event_name":"event_02","timestamp":1495777036},{"event_name":"event_02","timestamp":1495777065},{"event_name":"event_02","timestamp":1495777092},{"event_name":"event_05","timestamp":1495777132},{"event_name":"event_02","timestamp":1495777172},{"event_name":"event_06","timestamp":1495777216},{"event_name":"event_05","timestamp":1495777230},{"event_name":"event_00","timestamp":1495777262}]}
{"user_id":48919,"event_count":2,"session_starttimestamp":1495777798,"session_endtimestamp":1495779598,"session":[{"event_name":"event_02","timestamp":1495777798},{"event_name":"event_02","timestamp":1495777839}]}
{"user_id":48902,"event_count":1,"session_starttimestamp":1495777954,"session_endtimestamp":1495779754,"session":[{"event_name":"event_09","timestamp":1495777954}]}
{"user_id":48396,"event_count":2,"session_starttimestamp":1495778035,"session_endtimestamp":1495779835,"session":[{"event_name":"event_05","timestamp":1495778035},{"event_name":"event_01","timestamp":1495778059}]}
{"user_id":49044,"event_count":1,"session_starttimestamp":1495778522,"session_endtimestamp":1495780322,"session":[{"event_name":"event_09","timestamp":1495778522}]}
{"user_id":48604,"event_count":5,"session_starttimestamp":1495780295,"session_endtimestamp":1495782095,"session":[{"event_name":"event_05","timestamp":1495780295},{"event_name":"event_07","timestamp":1495780310},{"event_name":"event_01","timestamp":1495780318},{"event_name":"event_00","timestamp":1495780337},{"event_name":"event_08","timestamp":1495780351}]}
{"user_id":49617,"event_count":4,"session_starttimestamp":1495781205,"session_endtimestamp":1495783005,"session":[{"event_name":"event_07","timestamp":1495781205},{"event_name":"event_07","timestamp":1495781218},{"event_name":"event_06","timestamp":1495781249},{"event_name":"event_04","timestamp":1495781291}]}
{"user_id":48711,"event_count":1,"session_starttimestamp":1495782075,"session_endtimestamp":1495783875,"session":[{"event_name":"event_06","timestamp":1495782075}]}
{"user_id":49135,"event_count":2,"session_starttimestamp":1495782247,"session_endtimestamp":1495784047,"session":[{"event_name":"event_09","timestamp":1495782247},{"event_name":"event_00","timestamp":1495782252}]}
{"user_id":48980,"event_count":2,"session_starttimestamp":1495782266,"session_endtimestamp":1495784066,"session":[{"event_name":"event_04","timestamp":1495782266},{"event_name":"event_02","timestamp":1495782289}]}
{"user_id":49835,"event_count":1,"session_starttimestamp":1495782315,"session_endtimestamp":1495784115,"session":[{"event_name":"event_09","timestamp":1495782315}]}
{"user_id":48915,"event_count":2,"session_starttimestamp":1495782620,"session_endtimestamp":1495784420,"session":[{"event_name":"event_01","timestamp":1495782620},{"event_name":"event_00","timestamp":1495782655}]}
{"user_id":48902,"event_count":1,"session_starttimestamp":1495782706,"session_endtimestamp":1495784506,"session":[{"event_name":"event_00","timestamp":1495782706}]}
{"user_id":48604,"event_count":6,"session_starttimestamp":1495782766,"session_endtimestamp":1495784566,"session":[{"event_name":"event_06","timestamp":1495782766},{"event_name":"event_03","timestamp":1495782771},{"event_name":"event_00","timestamp":1495782805},{"event_name":"event_09","timestamp":1495782826},{"event_name":"event_03","timestamp":1495782841},{"event_name":"event_06","timestamp":1495782856}]}
{"user_id":48886,"event_count":1,"session_starttimestamp":1495783704,"session_endtimestamp":1495785504,"session":[{"event_name":"event_08","timestamp":1495783704}]}
{"user_id":48396,"event_count":2,"session_starttimestamp":1495784326,"session_endtimestamp":1495786126,"session":[{"event_name":"event_01","timestamp":1495784326},{"event_name":"event_07","timestamp":1495784368}]}
{"user_id":49192,"event_count":2,"session_starttimestamp":1495784588,"session_endtimestamp":1495786388,"session":[{"event_name":"event_00","timestamp":1495784588},{"event_name":"event_07","timestamp":1495784618}]}
{"user_id":49196,"event_count":5,"session_starttimestamp":1495784715,"session_endtimestamp":1495786515,"session":[{"event_name":"event_06","timestamp":1495784715},{"event_name":"event_01","timestamp":1495784725},{"event_name":"event_02","timestamp":1495784767},{"event_name":"event_08","timestamp":1495784780},{"event_name":"event_07","timestamp":1495784796}]}
{"user_id":49218,"event_count":1,"session_starttimestamp":1495785634,"session_endtimestamp":1495787434,"session":[{"event_name":"event_04","timestamp":1495785634}]}
{"user_id":48711,"event_count":5,"session_starttimestamp":1495785928,"session_endtimestamp":1495787728,"session":[{"event_name":"event_00","timestamp":1495785928},{"event_name":"event_08","timestamp":1495785969},{"event_name":"event_04","timestamp":1495785978},{"event_name":"event_02","timestamp":1495786020},{"event_name":"event_05","timestamp":1495786027}]}
{"user_id":49835,"event_count":8,"session_starttimestamp":1495786064,"session_endtimestamp":1495787864,"session":[{"event_name":"event_01","timestamp":1495786064},{"event_name":"event_06","timestamp":1495786088},{"event_name":"event_07","timestamp":1495786118},{"event_name":"event_01","timestamp":1495786141},{"event_name":"event_09","timestamp":1495786175},{"event_name":"event_06","timestamp":1495786186},{"event_name":"event_01","timestamp":1495786218},{"event_name":"event_05","timestamp":1495786226}]}
{"user_id":49236,"event_count":6,"session_starttimestamp":1495786389,"session_endtimestamp":1495788189,"session":[{"event_name":"event_00","timestamp":1495786389},{"event_name":"event_09","timestamp":1495786401},{"event_name":"event_02","timestamp":1495786441},{"event_name":"event_00","timestamp":1495786466},{"event_name":"event_08","timestamp":1495786483},{"event_name":"event_04","timestamp":1495786520}]}
{"user_id":48915,"event_count":3,"session_starttimestamp":1495786406,"session_endtimestamp":1495788206,"session":[{"event_name":"event_09","timestamp":1495786406},{"event_name":"event_06","timestamp":1495786451},{"event_name":"event_09","timestamp":1495786463}]}
{"user_id":48604,"event_count":1,"session_starttimestamp":1495786411,"session_endtimestamp":1495788211,"session":[{"event_name":"event_08","timestamp":1495786411}]}
{"user_id":49044,"event_count":3,"session_starttimestamp":1495786559,"session_endtimestamp":1495788359,"session":[{"event_name":"event_03","timestamp":1495786559},{"event_name":"event_03","timestamp":1495786600},{"event_name":"event_01","timestamp":1495786635}]}
{"user_id":49257,"event_count":4,"session_starttimestamp":1495787237,"session_endtimestamp":1495789037,"session":[{"event_name":"event_02","timestamp":1495787237},{"event_name":"event_02","timestamp":1495787266},{"event_name":"event_05","timestamp":1495787290},{"event_name":"event_08","timestamp":1495787296}]}
{"user_id":49278,"event_count":2,"session_starttimestamp":1495788086,"session_endtimestamp":1495789886,"session":[{"event_name":"event_03","timestamp":1495788086},{"event_name":"event_09","timestamp":1495788111}]}
{"user_id":49196,"event_count":2,"session_starttimestamp":1495789532,"session_endtimestamp":1495791332,"session":[{"event_name":"event_06","timestamp":1495789532},{"event_name":"event_08","timestamp":1495789572}]}
{"user_id":49318,"event_count":4,"session_starttimestamp":1495789734,"session_endtimestamp":1495791534,"session":[{"event_name":"event_09","timestamp":1495789734},{"event_name":"event_00","timestamp":1495789744},{"event_name":"event_01","timestamp":1495789784},{"event_name":"event_02","timestamp":1495789823}]}
{"user_id":49135,"event_count":1,"session_starttimestamp":1495789861,"session_endtimestamp":1495791661,"session":[{"event_name":"event_07","timestamp":1495789861}]}
{"user_id":48711,"event_count":4,"session_starttimestamp":1495790623,"session_endtimestamp":1495792423,"session":[{"event_name":"event_05","timestamp":1495790623},{"event_name":"event_08","timestamp":1495790628},{"event_name":"event_00","timestamp":1495790649},{"event_name":"event_04","timestamp":1495790675}]}
{"user_id":49370,"event_count":13,"session_starttimestamp":1495791879,"session_endtimestamp":1495793679,"session":[{"event_name":"event_08","timestamp":1495791879},{"event_name":"event_09","timestamp":1495791903},{"event_name":"event_09","timestamp":1495791924},{"event_name":"event_06","timestamp":1495791935},{"event_name":"event_02","timestamp":1495791980},{"event_name":"event_03","timestamp":1495792004},{"event_name":"event_07","timestamp":1495792015},{"event_name":"event_00","timestamp":1495792059},{"event_name":"event_05","timestamp":1495792094},{"event_name":"event_07","timestamp":1495792117},{"event_name":"event_07","timestamp":1495792144},{"event_name":"event_06","timestamp":1495792154},{"event_name":"event_07","timestamp":1495792165}]}
{"user_id":49375,"event_count":5,"session_starttimestamp":1495792087,"session_endtimestamp":1495793887,"session":[{"event_name":"event_04","timestamp":1495792087},{"event_name":"event_02","timestamp":1495792129},{"event_name":"event_09","timestamp":1495792152},{"event_name":"event_06","timestamp":1495792177},{"event_name":"event_06","timestamp":1495792217}]}
{"user_id":48980,"event_count":7,"session_starttimestamp":1495792629,"session_endtimestamp":1495794429,"session":[{"event_name":"event_04","timestamp":1495792629},{"event_name":"event_05","timestamp":1495792667},{"event_name":"event_03","timestamp":1495792708},{"event_name":"event_02","timestamp":1495792713},{"event_name":"event_06","timestamp":1495792758},{"event_name":"event_00","timestamp":1495792787},{"event_name":"event_05","timestamp":1495792804}]}
{"user_id":48886,"event_count":9,"session_starttimestamp":1495792966,"session_endtimestamp":1495794766,"session":[{"event_name":"event_08","timestamp":1495792966},{"event_name":"event_02","timestamp":1495792993},{"event_name":"event_07","timestamp":1495793012},{"event_name":"event_06","timestamp":1495793017},{"event_name":"event_01","timestamp":1495793027},{"event_name":"event_04","timestamp":1495793055},{"event_name":"event_02","timestamp":1495793095},{"event_name":"event_04","timestamp":1495793136},{"event_name":"event_08","timestamp":1495793159}]}
{"user_id":49318,"event_count":2,"session_starttimestamp":1495793861,"session_endtimestamp":1495795661,"session":[{"event_name":"event_00","timestamp":1495793861},{"event_name":"event_02","timestamp":1495793874}]}
{"user_id":49218,"event_count":4,"session_starttimestamp":1495794924,"session_endtimestamp":1495796724,"session":[{"event_name":"event_08","timestamp":1495794924},{"event_name":"event_00","timestamp":1495794937},{"event_name":"event_09","timestamp":1495794968},{"event_name":"event_00","timestamp":1495794975}]}
{"user_id":49196,"event_count":5,"session_starttimestamp":1495795540,"session_endtimestamp":1495797340,"session":[{"event_name":"event_04","timestamp":1495795540},{"event_name":"event_07","timestamp":1495795551},{"event_name":"event_07","timestamp":1495795591},{"event_name":"event_06","timestamp":1495795629},{"event_name":"event_00","timestamp":1495795660}]}
{"user_id":49462,"event_count":1,"session_starttimestamp":1495795629,"session_endtimestamp":1495797429,"session":[{"event_name":"event_04","timestamp":1495795629}]}
{"user_id":49468,"event_count":6,"session_starttimestamp":1495795891,"session_endtimestamp":1495797691,"session":[{"event_name":"event_07","timestamp":1495795891},{"event_name":"event_05","timestamp":1495795912},{"event_name":"event_08","timestamp":1495795949},{"event_name":"event_02","timestamp":1495795961},{"event_name":"event_06","timestamp":1495795997},{"event_name":"event_07","timestamp":1495796034}]}
{"user_id":48604,"event_count":5,"session_starttimestamp":1495796064,"session_endtimestamp":1495797864,"session":[{"event_name":"event_07","timestamp":1495796064},{"event_name":"event_07","timestamp":1495796103},{"event_name":"event_05","timestamp":1495796120},{"event_name":"event_03","timestamp":1495796146},{"event_name":"event_09","timestamp":1495796169}]}
{"user_id":49278,"event_count":11,"session_starttimestamp":1495796965,"session_endtimestamp":1495798765,"session":[{"event_name":"event_05","timestamp":1495796965},{"event_name":"event_07","timestamp":1495796980},{"event_name":"event_03","timestamp":1495797025},{"event_name":"event_01","timestamp":1495797061},{"event_name":"event_07","timestamp":1495797094},{"event_name":"event_05","timestamp":1495797120},{"event_name":"event_08","timestamp":1495797133},{"event_name":"event_03","timestamp":1495797160},{"event_name":"event_09","timestamp":1495797188},{"event_name":"event_08","timestamp":1495797228},{"event_name":"event_00","timestamp":1495797253}]}
{"user_id":49218,"event_count":1,"session_starttimestamp":1495797835,"session_endtimestamp":1495799635,"session":[{"event_name":"event_02","timestamp":1495797835}]}
{"user_id":48711,"event_count":8,"session_starttimestamp":1495798869,"session_endtimestamp":1495800669,"session":[{"event_name":"event_05","timestamp":1495798869},{"event_name":"event_05","timestamp":1495798905},{"event_name":"event_08","timestamp":1495798915},{"event_name":"event_05","timestamp":1495798960},{"event_name":"event_04","timestamp":1495798974},{"event_name":"event_01","timestamp":1495798985},{"event_name":"event_05","timestamp":1495799019},{"event_name":"event_00","timestamp":1495799046}]}
{"user_id":49581,"event_count":3,"session_starttimestamp":1495800502,"session_endtimestamp":1495802302,"session":[{"event_name":"event_08","timestamp":1495800502},{"event_name":"event_05","timestamp":1495800540},{"event_name":"event_06","timestamp":1495800555}]}
{"user_id":49318,"event_count":1,"session_starttimestamp":1495801168,"session_endtimestamp":1495802968,"session":[{"event_name":"event_07","timestamp":1495801168}]}
{"user_id":49278,"event_count":3,"session_starttimestamp":1495801252,"session_endtimestamp":1495803052,"session":[{"event_name":"event_01","timestamp":1495801252},{"event_name":"event_06","timestamp":1495801294},{"event_name":"event_09","timestamp":1495801307}]}
{"user_id":48604,"event_count":2,"session_starttimestamp":1495804124,"session_endtimestamp":1495805924,"session":[{"event_name":"event_00","timestamp":1495804124},{"event_name":"event_06","timestamp":1495804143}]}
{"user_id":49717,"event_count":8,"session_starttimestamp":1495806111,"session_endtimestamp":1495807911,"session":[{"event_name":"event_02","timestamp":1495806111},{"event_name":"event_07","timestamp":1495806120},{"event_name":"event_05","timestamp":1495806131},{"event_name":"event_08","timestamp":1495806147},{"event_name":"event_05","timestamp":1495806165},{"event_name":"event_06","timestamp":1495806209},{"event_name":"event_02","timestamp":1495806235},{"event_name":"event_01","timestamp":1495806260}]}
{"user_id":48711,"event_count":1,"session_starttimestamp":1495806369,"session_endtimestamp":1495808169,"session":[{"event_name":"event_04","timestamp":1495806369}]}
{"user_id":49748,"event_count":3,"session_starttimestamp":1495807360,"session_endtimestamp":1495809160,"session":[{"event_name":"event_00","timestamp":1495807360},{"event_name":"event_03","timestamp":1495807368},{"event_name":"event_00","timestamp":1495807404}]}
{"user_id":49218,"event_count":5,"session_starttimestamp":1495807800,"session_endtimestamp":1495809600,"session":[{"event_name":"event_01","timestamp":1495807800},{"event_name":"event_06","timestamp":1495807813},{"event_name":"event_02","timestamp":1495807856},{"event_name":"event_09","timestamp":1495807875},{"event_name":"event_09","timestamp":1495807893}]}
{"user_id":49717,"event_count":1,"session_starttimestamp":1495809062,"session_endtimestamp":1495810862,"session":[{"event_name":"event_07","timestamp":1495809062}]}
{"user_id":48604,"event_count":1,"session_starttimestamp":1495809235,"session_endtimestamp":1495811035,"session":[{"event_name":"event_08","timestamp":1495809235}]}
{"user_id":49278,"event_count":5,"session_starttimestamp":1495809341,"session_endtimestamp":1495811141,"session":[{"event_name":"event_08","timestamp":1495809341},{"event_name":"event_03","timestamp":1495809385},{"event_name":"event_08","timestamp":1495809415},{"event_name":"event_02","timestamp":1495809452},{"event_name":"event_06","timestamp":1495809475}]}
{"user_id":49809,"event_count":8,"session_starttimestamp":1495809883,"session_endtimestamp":1495811683,"session":[{"event_name":"event_04","timestamp":1495809883},{"event_name":"event_08","timestamp":1495809894},{"event_name":"event_07","timestamp":1495809935},{"event_name":"event_09","timestamp":1495809972},{"event_name":"event_04","timestamp":1495809994},{"event_name":"event_07","timestamp":1495810020},{"event_name":"event_05","timestamp":1495810043},{"event_name":"event_01","timestamp":1495810051}]}
{"user_id":49581,"event_count":6,"session_starttimestamp":1495810134,"session_endtimestamp":1495811934,"session":[{"event_name":"event_00","timestamp":1495810134},{"event_name":"event_07","timestamp":1495810160},{"event_name":"event_00","timestamp":1495810176},{"event_name":"event_01","timestamp":1495810192},{"event_name":"event_07","timestamp":1495810222},{"event_name":"event_01","timestamp":1495810240}]}
{"user_id":49218,"event_count":4,"session_starttimestamp":1495810532,"session_endtimestamp":1495812332,"session":[{"event_name":"event_00","timestamp":1495810532},{"event_name":"event_05","timestamp":1495810552},{"event_name":"event_04","timestamp":1495810589},{"event_name":"event_07","timestamp":1495810603}]}
{"user_id":48711,"event_count":5,"session_starttimestamp":1495810758,"session_endtimestamp":1495812558,"session":[{"event_name":"event_09","timestamp":1495810758},{"event_name":"event_01","timestamp":1495810770},{"event_name":"event_04","timestamp":1495810813},{"event_name":"event_01","timestamp":1495810847},{"event_name":"event_05","timestamp":1495810858}]}
{"user_id":49833,"event_count":7,"session_starttimestamp":1495810834,"session_endtimestamp":1495812634,"session":[{"event_name":"event_09","timestamp":1495810834},{"event_name":"event_02","timestamp":1495810870},{"event_name":"event_02","timestamp":1495810893},{"event_name":"event_03","timestamp":1495810919},{"event_name":"event_06","timestamp":1495810930},{"event_name":"event_04","timestamp":1495810950},{"event_name":"event_06","timestamp":1495810973}]}
{"user_id":49748,"event_count":4,"session_starttimestamp":1495811774,"session_endtimestamp":1495813574,"session":[{"event_name":"event_05","timestamp":1495811774},{"event_name":"event_00","timestamp":1495811811},{"event_name":"event_07","timestamp":1495811850},{"event_name":"event_09","timestamp":1495811891}]}
{"user_id":49888,"event_count":5,"session_starttimestamp":1495813110,"session_endtimestamp":1495814910,"session":[{"event_name":"event_09","timestamp":1495813110},{"event_name":"event_06","timestamp":1495813116},{"event_name":"event_09","timestamp":1495813135},{"event_name":"event_05","timestamp":1495813149},{"event_name":"event_03","timestamp":1495813188}]}
{"user_id":49717,"event_count":4,"session_starttimestamp":1495813886,"session_endtimestamp":1495815686,"session":[{"event_name":"event_05","timestamp":1495813886},{"event_name":"event_03","timestamp":1495813916},{"event_name":"event_01","timestamp":1495813923},{"event_name":"event_09","timestamp":1495813953}]}
{"user_id":49748,"event_count":2,"session_starttimestamp":1495814204,"session_endtimestamp":1495816004,"session":[{"event_name":"event_08","timestamp":1495814204},{"event_name":"event_02","timestamp":1495814239}]}
{"user_id":49937,"event_count":2,"session_starttimestamp":1495815128,"session_endtimestamp":1495816928,"session":[{"event_name":"event_02","timestamp":1495815128},{"event_name":"event_02","timestamp":1495815148}]}
{"user_id":49278,"event_count":6,"session_starttimestamp":1495815904,"session_endtimestamp":1495817704,"session":[{"event_name":"event_03","timestamp":1495815904},{"event_name":"event_04","timestamp":1495815927},{"event_name":"event_00","timestamp":1495815953},{"event_name":"event_09","timestamp":1495815959},{"event_name":"event_09","timestamp":1495815995},{"event_name":"event_09","timestamp":1495816016}]}
{"user_id":49980,"event_count":6,"session_starttimestamp":1495816879,"session_endtimestamp":1495818679,"session":[{"event_name":"event_01","timestamp":1495816879},{"event_name":"event_05","timestamp":1495816893},{"event_name":"event_00","timestamp":1495816924},{"event_name":"event_00","timestamp":1495816931},{"event_name":"event_06","timestamp":1495816946},{"event_name":"event_06","timestamp":1495816966}]}
{"user_id":48711,"event_count":2,"session_starttimestamp":1495817305,"session_endtimestamp":1495819105,"session":[{"event_name":"event_09","timestamp":1495817305},{"event_name":"event_07","timestamp":1495817322}]}
{"user_id":49833,"event_count":1,"session_starttimestamp":1495820250,"session_endtimestamp":1495822050,"session":[{"event_name":"event_08","timestamp":1495820250}]}
{"user_id":49748,"event_count":1,"session_starttimestamp":1495820620,"session_endtimestamp":1495822420,"session":[{"event_name":"event_08","timestamp":1495820620}]}
{"user_id":49980,"event_count":5,"session_starttimestamp":1495820700,"session_endtimestamp":1495822500,"session":[{"event_name":"event_01","timestamp":1495820700},{"event_name":"event_01","timestamp":1495820742},{"event_name":"event_01","timestamp":1495820764},{"event_name":"event_00","timestamp":1495820802},{"event_name":"event_09","timestamp":1495822434}]}
{"user_id":49218,"event_count":5,"session_starttimestamp":1495820846,"session_endtimestamp":1495822646,"session":[{"event_name":"event_09","timestamp":1495820846},{"event_name":"event_09","timestamp":1495820861},{"event_name":"event_05","timestamp":1495820882},{"event_name":"event_02","timestamp":1495820914},{"event_name":"event_02","timestamp":1495820925}]}
{"user_id":49717,"event_count":2,"session_starttimestamp":1495822030,"session_endtimestamp":1495823830,"session":[{"event_name":"event_02","timestamp":1495822030},{"event_name":"event_00","timestamp":1495822050}]}
{"user_id":49278,"event_count":2,"session_starttimestamp":1495823473,"session_endtimestamp":1495825273,"session":[{"event_name":"event_01","timestamp":1495823473},{"event_name":"event_01","timestamp":1495823511}]}
{"user_id":49218,"event_count":1,"session_starttimestamp":1495827963,"session_endtimestamp":1495829763,"session":[{"event_name":"event_06","timestamp":1495827963}]}
{"user_id":49717,"event_count":1,"session_starttimestamp":1495830284,"session_endtimestamp":1495832084,"session":[{"event_name":"event_05","timestamp":1495830284}]}
{"user_id":49980,"event_count":3,"session_starttimestamp":1495831860,"session_endtimestamp":1495833660,"session":[{"event_name":"event_07","timestamp":1495831860},{"event_name":"event_09","timestamp":1495831881},{"event_name":"event_08","timestamp":1495831918}]}
{"user_id":49218,"event_count":20,"session_starttimestamp":1495831892,"session_endtimestamp":1495833692,"session":[{"event_name":"event_07","timestamp":1495831892},{"event_name":"event_00","timestamp":1495831933},{"event_name":"event_03","timestamp":1495831955},{"event_name":"event_09","timestamp":1495831975},{"event_name":"event_09","timestamp":1495832004},{"event_name":"event_02","timestamp":1495832011},{"event_name":"event_01","timestamp":1495832029},{"event_name":"event_06","timestamp":1495832054},{"event_name":"event_08","timestamp":1495832060},{"event_name":"event_05","timestamp":1495832091},{"event_name":"event_03","timestamp":1495832136},{"event_name":"event_05","timestamp":1495832158},{"event_name":"event_06","timestamp":1495832172},{"event_name":"event_06","timestamp":1495832204},{"event_name":"event_06","timestamp":1495832237},{"event_name":"event_07","timestamp":1495832282},{"event_name":"event_03","timestamp":1495832306},{"event_name":"event_06","timestamp":1495832347},{"event_name":"event_08","timestamp":1495832357},{"event_name":"event_09","timestamp":1495832372}]}
{"user_id":49980,"event_count":1,"session_starttimestamp":1495834942,"session_endtimestamp":1495836742,"session":[{"event_name":"event_03","timestamp":1495834942}]}
